modules/multiplier/hdl/mult_matrix_3_3_s16_tb.vcd
$date
  Sat Nov 30 16:21:07 2019
$end
$version
  GHDL v0
$end
$timescale
  1 fs
$end
$var reg 1 ! clk $end
$var reg 1 " rst $end
$var reg 1 # r_start $end
$var reg 1 $ r_valid $end
$comment r_m_in_1 is not handled $end
$comment r_m_in_2 is not handled $end
$comment r_m_out is not handled $end
$var reg 32 % r_o_row_0_0[31:0] $end
$var reg 32 & r_o_row_0_1[31:0] $end
$var reg 32 ' r_o_row_0_2[31:0] $end
$var reg 32 ( r_o_row_1_0[31:0] $end
$var reg 32 ) r_o_row_1_1[31:0] $end
$var reg 32 * r_o_row_1_2[31:0] $end
$var reg 32 + r_o_row_2_0[31:0] $end
$var reg 32 , r_o_row_2_1[31:0] $end
$var reg 32 - r_o_row_2_2[31:0] $end
$scope module inst_dut $end
$var reg 1 . clk $end
$var reg 1 / reset $end
$var reg 1 0 start $end
$comment m_in_1 is not handled $end
$comment m_in_2 is not handled $end
$comment m_out is not handled $end
$var reg 1 1 valid $end
$comment r_state is not handled $end
$var reg 16 2 r_x1_a[15:0] $end
$var reg 16 3 r_x2_a[15:0] $end
$var reg 16 4 r_x3_a[15:0] $end
$var reg 16 5 r_y_a[15:0] $end
$var reg 32 6 r_z1_a[31:0] $end
$var reg 32 7 r_z2_a[31:0] $end
$var reg 32 8 r_z3_a[31:0] $end
$var reg 16 9 r_x1_b[15:0] $end
$var reg 16 : r_x2_b[15:0] $end
$var reg 16 ; r_x3_b[15:0] $end
$var reg 16 < r_y_b[15:0] $end
$var reg 32 = r_z1_b[31:0] $end
$var reg 32 > r_z2_b[31:0] $end
$var reg 32 ? r_z3_b[31:0] $end
$var reg 16 @ r_x1_c[15:0] $end
$var reg 16 A r_x2_c[15:0] $end
$var reg 16 B r_x3_c[15:0] $end
$var reg 16 C r_y_c[15:0] $end
$var reg 32 D r_z1_c[31:0] $end
$var reg 32 E r_z2_c[31:0] $end
$var reg 32 F r_z3_c[31:0] $end
$var reg 1 G r_start_mult_a $end
$var reg 1 H r_valid_a $end
$var reg 1 I r_start_mult_b $end
$var reg 1 J r_valid_b $end
$var reg 1 K r_start_mult_c $end
$var reg 1 L r_valid_c $end
$var integer 32 M r_row_pointer $end
$comment r_m_out is not handled $end
$scope module inst_mult_a $end
$var reg 1 N clk $end
$var reg 1 O reset $end
$var reg 1 P start $end
$var reg 16 Q x1[15:0] $end
$var reg 16 R x2[15:0] $end
$var reg 16 S x3[15:0] $end
$var reg 16 T y[15:0] $end
$var reg 32 U z1[31:0] $end
$var reg 32 V z2[31:0] $end
$var reg 32 W z3[31:0] $end
$var reg 1 X valid $end
$comment r_state is not handled $end
$var reg 32 Y r_x1[31:0] $end
$var reg 32 Z r_x2[31:0] $end
$var reg 32 [ r_x3[31:0] $end
$var reg 16 \ r_y[15:0] $end
$var reg 32 ] r_z1[31:0] $end
$var reg 32 ^ r_z2[31:0] $end
$var reg 32 _ r_z3[31:0] $end
$var integer 32 ` r_cnt $end
$var reg 1 a r_negative_mult $end
$upscope $end
$scope module inst_mult_b $end
$var reg 1 b clk $end
$var reg 1 c reset $end
$var reg 1 d start $end
$var reg 16 e x1[15:0] $end
$var reg 16 f x2[15:0] $end
$var reg 16 g x3[15:0] $end
$var reg 16 h y[15:0] $end
$var reg 32 i z1[31:0] $end
$var reg 32 j z2[31:0] $end
$var reg 32 k z3[31:0] $end
$var reg 1 l valid $end
$comment r_state is not handled $end
$var reg 32 m r_x1[31:0] $end
$var reg 32 n r_x2[31:0] $end
$var reg 32 o r_x3[31:0] $end
$var reg 16 p r_y[15:0] $end
$var reg 32 q r_z1[31:0] $end
$var reg 32 r r_z2[31:0] $end
$var reg 32 s r_z3[31:0] $end
$var integer 32 t r_cnt $end
$var reg 1 u r_negative_mult $end
$upscope $end
$scope module inst_mult_c $end
$var reg 1 v clk $end
$var reg 1 w reset $end
$var reg 1 x start $end
$var reg 16 y x1[15:0] $end
$var reg 16 z x2[15:0] $end
$var reg 16 { x3[15:0] $end
$var reg 16 | y[15:0] $end
$var reg 32 } z1[31:0] $end
$var reg 32 !" z2[31:0] $end
$var reg 32 "" z3[31:0] $end
$var reg 1 #" valid $end
$comment r_state is not handled $end
$var reg 32 $" r_x1[31:0] $end
$var reg 32 %" r_x2[31:0] $end
$var reg 32 &" r_x3[31:0] $end
$var reg 16 '" r_y[15:0] $end
$var reg 32 (" r_z1[31:0] $end
$var reg 32 )" r_z2[31:0] $end
$var reg 32 *" r_z3[31:0] $end
$var integer 32 +" r_cnt $end
$var reg 1 ," r_negative_mult $end
$upscope $end
$upscope $end
$enddefinitions $end
#0
0!
1"
0#
0$
b00000000000000000000000000000000 %
b00000000000000000000000000000000 &
b00000000000000000000000000000000 '
b00000000000000000000000000000000 (
b00000000000000000000000000000000 )
b00000000000000000000000000000000 *
b00000000000000000000000000000000 +
b00000000000000000000000000000000 ,
b00000000000000000000000000000000 -
0.
1/
00
01
b0000000000000000 2
b0000000000000000 3
b0000000000000000 4
b0000000000000000 5
b00000000000000000000000000000000 6
b00000000000000000000000000000000 7
b00000000000000000000000000000000 8
b0000000000000000 9
b0000000000000000 :
b0000000000000000 ;
b0000000000000000 <
b00000000000000000000000000000000 =
b00000000000000000000000000000000 >
b00000000000000000000000000000000 ?
b0000000000000000 @
b0000000000000000 A
b0000000000000000 B
b0000000000000000 C
b00000000000000000000000000000000 D
b00000000000000000000000000000000 E
b00000000000000000000000000000000 F
0G
0H
0I
0J
0K
0L
b0 M
0N
1O
0P
b0000000000000000 Q
b0000000000000000 R
b0000000000000000 S
b0000000000000000 T
b00000000000000000000000000000000 U
b00000000000000000000000000000000 V
b00000000000000000000000000000000 W
0X
b00000000000000000000000000000000 Y
b00000000000000000000000000000000 Z
b00000000000000000000000000000000 [
b0000000000000000 \
b00000000000000000000000000000000 ]
b00000000000000000000000000000000 ^
b00000000000000000000000000000000 _
b0 `
0a
0b
1c
0d
b0000000000000000 e
b0000000000000000 f
b0000000000000000 g
b0000000000000000 h
b00000000000000000000000000000000 i
b00000000000000000000000000000000 j
b00000000000000000000000000000000 k
0l
b00000000000000000000000000000000 m
b00000000000000000000000000000000 n
b00000000000000000000000000000000 o
b0000000000000000 p
b00000000000000000000000000000000 q
b00000000000000000000000000000000 r
b00000000000000000000000000000000 s
b0 t
0u
0v
1w
0x
b0000000000000000 y
b0000000000000000 z
b0000000000000000 {
b0000000000000000 |
b00000000000000000000000000000000 }
b00000000000000000000000000000000 !"
b00000000000000000000000000000000 ""
0#"
b00000000000000000000000000000000 $"
b00000000000000000000000000000000 %"
b00000000000000000000000000000000 &"
b0000000000000000 '"
b00000000000000000000000000000000 ("
b00000000000000000000000000000000 )"
b00000000000000000000000000000000 *"
b0 +"
0,"
#40000000
1!
1.
1N
1b
1v
#80000000
0!
0.
0N
0b
0v
#100000000
0"
1#
0/
10
0O
0c
0w
#120000000
1!
0#
1.
00
b0000000000000011 2
b0000000000000011 3
b0000000000000011 4
b0000000000000001 5
b0000000000000010 9
b0000000000000010 :
b0000000000000010 ;
b0000000000000001 <
b0000000000000001 @
b0000000000000001 A
b0000000000000001 B
b0000000000000001 C
1G
1I
1K
1N
1P
b0000000000000011 Q
b0000000000000011 R
b0000000000000011 S
b0000000000000001 T
1b
1d
b0000000000000010 e
b0000000000000010 f
b0000000000000010 g
b0000000000000001 h
1v
1x
b0000000000000001 y
b0000000000000001 z
b0000000000000001 {
b0000000000000001 |
#160000000
0!
0.
0N
0b
0v
#200000000
1!
1.
1N
b00000000000000000000000000000011 Y
b00000000000000000000000000000011 Z
b00000000000000000000000000000011 [
b0000000000000001 \
1b
b00000000000000000000000000000010 m
b00000000000000000000000000000010 n
b00000000000000000000000000000010 o
b0000000000000001 p
1v
b00000000000000000000000000000001 $"
b00000000000000000000000000000001 %"
b00000000000000000000000000000001 &"
b0000000000000001 '"
#240000000
0!
0.
0N
0b
0v
#280000000
1!
1.
1N
b00000000000000000000000000000110 Y
b00000000000000000000000000000110 Z
b00000000000000000000000000000110 [
b0000000000000000 \
b00000000000000000000000000000011 ]
b00000000000000000000000000000011 ^
b00000000000000000000000000000011 _
b1 `
1b
b00000000000000000000000000000100 m
b00000000000000000000000000000100 n
b00000000000000000000000000000100 o
b0000000000000000 p
b00000000000000000000000000000010 q
b00000000000000000000000000000010 r
b00000000000000000000000000000010 s
b1 t
1v
b00000000000000000000000000000010 $"
b00000000000000000000000000000010 %"
b00000000000000000000000000000010 &"
b0000000000000000 '"
b00000000000000000000000000000001 ("
b00000000000000000000000000000001 )"
b00000000000000000000000000000001 *"
b1 +"
#320000000
0!
0.
0N
0b
0v
#360000000
1!
1.
1N
b00000000000000000000000000001100 Y
b00000000000000000000000000001100 Z
b00000000000000000000000000001100 [
b10 `
1b
b00000000000000000000000000001000 m
b00000000000000000000000000001000 n
b00000000000000000000000000001000 o
b10 t
1v
b00000000000000000000000000000100 $"
b00000000000000000000000000000100 %"
b00000000000000000000000000000100 &"
b10 +"
#400000000
0!
0.
0N
0b
0v
#440000000
1!
1.
1N
b00000000000000000000000000011000 Y
b00000000000000000000000000011000 Z
b00000000000000000000000000011000 [
b11 `
1b
b00000000000000000000000000010000 m
b00000000000000000000000000010000 n
b00000000000000000000000000010000 o
b11 t
1v
b00000000000000000000000000001000 $"
b00000000000000000000000000001000 %"
b00000000000000000000000000001000 &"
b11 +"
#480000000
0!
0.
0N
0b
0v
#520000000
1!
1.
1N
b00000000000000000000000000110000 Y
b00000000000000000000000000110000 Z
b00000000000000000000000000110000 [
b100 `
1b
b00000000000000000000000000100000 m
b00000000000000000000000000100000 n
b00000000000000000000000000100000 o
b100 t
1v
b00000000000000000000000000010000 $"
b00000000000000000000000000010000 %"
b00000000000000000000000000010000 &"
b100 +"
#560000000
0!
0.
0N
0b
0v
#600000000
1!
1.
1N
b00000000000000000000000001100000 Y
b00000000000000000000000001100000 Z
b00000000000000000000000001100000 [
b101 `
1b
b00000000000000000000000001000000 m
b00000000000000000000000001000000 n
b00000000000000000000000001000000 o
b101 t
1v
b00000000000000000000000000100000 $"
b00000000000000000000000000100000 %"
b00000000000000000000000000100000 &"
b101 +"
#640000000
0!
0.
0N
0b
0v
#680000000
1!
1.
1N
b00000000000000000000000011000000 Y
b00000000000000000000000011000000 Z
b00000000000000000000000011000000 [
b110 `
1b
b00000000000000000000000010000000 m
b00000000000000000000000010000000 n
b00000000000000000000000010000000 o
b110 t
1v
b00000000000000000000000001000000 $"
b00000000000000000000000001000000 %"
b00000000000000000000000001000000 &"
b110 +"
#720000000
0!
0.
0N
0b
0v
#760000000
1!
1.
1N
b00000000000000000000000110000000 Y
b00000000000000000000000110000000 Z
b00000000000000000000000110000000 [
b111 `
1b
b00000000000000000000000100000000 m
b00000000000000000000000100000000 n
b00000000000000000000000100000000 o
b111 t
1v
b00000000000000000000000010000000 $"
b00000000000000000000000010000000 %"
b00000000000000000000000010000000 &"
b111 +"
#800000000
0!
0.
0N
0b
0v
#840000000
1!
1.
1N
b00000000000000000000001100000000 Y
b00000000000000000000001100000000 Z
b00000000000000000000001100000000 [
b1000 `
1b
b00000000000000000000001000000000 m
b00000000000000000000001000000000 n
b00000000000000000000001000000000 o
b1000 t
1v
b00000000000000000000000100000000 $"
b00000000000000000000000100000000 %"
b00000000000000000000000100000000 &"
b1000 +"
#880000000
0!
0.
0N
0b
0v
#920000000
1!
1.
1N
b00000000000000000000011000000000 Y
b00000000000000000000011000000000 Z
b00000000000000000000011000000000 [
b1001 `
1b
b00000000000000000000010000000000 m
b00000000000000000000010000000000 n
b00000000000000000000010000000000 o
b1001 t
1v
b00000000000000000000001000000000 $"
b00000000000000000000001000000000 %"
b00000000000000000000001000000000 &"
b1001 +"
#960000000
0!
0.
0N
0b
0v
#1000000000
1!
1.
1N
b00000000000000000000110000000000 Y
b00000000000000000000110000000000 Z
b00000000000000000000110000000000 [
b1010 `
1b
b00000000000000000000100000000000 m
b00000000000000000000100000000000 n
b00000000000000000000100000000000 o
b1010 t
1v
b00000000000000000000010000000000 $"
b00000000000000000000010000000000 %"
b00000000000000000000010000000000 &"
b1010 +"
#1040000000
0!
0.
0N
0b
0v
#1080000000
1!
1.
1N
b00000000000000000001100000000000 Y
b00000000000000000001100000000000 Z
b00000000000000000001100000000000 [
b1011 `
1b
b00000000000000000001000000000000 m
b00000000000000000001000000000000 n
b00000000000000000001000000000000 o
b1011 t
1v
b00000000000000000000100000000000 $"
b00000000000000000000100000000000 %"
b00000000000000000000100000000000 &"
b1011 +"
#1120000000
0!
0.
0N
0b
0v
#1160000000
1!
1.
1N
b00000000000000000011000000000000 Y
b00000000000000000011000000000000 Z
b00000000000000000011000000000000 [
b1100 `
1b
b00000000000000000010000000000000 m
b00000000000000000010000000000000 n
b00000000000000000010000000000000 o
b1100 t
1v
b00000000000000000001000000000000 $"
b00000000000000000001000000000000 %"
b00000000000000000001000000000000 &"
b1100 +"
#1200000000
0!
0.
0N
0b
0v
#1240000000
1!
1.
1N
b00000000000000000110000000000000 Y
b00000000000000000110000000000000 Z
b00000000000000000110000000000000 [
b1101 `
1b
b00000000000000000100000000000000 m
b00000000000000000100000000000000 n
b00000000000000000100000000000000 o
b1101 t
1v
b00000000000000000010000000000000 $"
b00000000000000000010000000000000 %"
b00000000000000000010000000000000 &"
b1101 +"
#1280000000
0!
0.
0N
0b
0v
#1320000000
1!
1.
1N
b00000000000000001100000000000000 Y
b00000000000000001100000000000000 Z
b00000000000000001100000000000000 [
b1110 `
1b
b00000000000000001000000000000000 m
b00000000000000001000000000000000 n
b00000000000000001000000000000000 o
b1110 t
1v
b00000000000000000100000000000000 $"
b00000000000000000100000000000000 %"
b00000000000000000100000000000000 &"
b1110 +"
#1360000000
0!
0.
0N
0b
0v
#1400000000
1!
1.
1N
b00000000000000011000000000000000 Y
b00000000000000011000000000000000 Z
b00000000000000011000000000000000 [
b1111 `
1b
b00000000000000010000000000000000 m
b00000000000000010000000000000000 n
b00000000000000010000000000000000 o
b1111 t
1v
b00000000000000001000000000000000 $"
b00000000000000001000000000000000 %"
b00000000000000001000000000000000 &"
b1111 +"
#1440000000
0!
0.
0N
0b
0v
#1480000000
1!
1.
1N
b00000000000000110000000000000000 Y
b00000000000000110000000000000000 Z
b00000000000000110000000000000000 [
b10000 `
1b
b00000000000000100000000000000000 m
b00000000000000100000000000000000 n
b00000000000000100000000000000000 o
b10000 t
1v
b00000000000000010000000000000000 $"
b00000000000000010000000000000000 %"
b00000000000000010000000000000000 &"
b10000 +"
#1520000000
0!
0.
0N
0b
0v
#1560000000
1!
1.
1N
b10001 `
1b
b10001 t
1v
b10001 +"
#1600000000
0!
0.
0N
0b
0v
#1640000000
1!
1.
b00000000000000000000000000000011 6
b00000000000000000000000000000011 7
b00000000000000000000000000000011 8
b00000000000000000000000000000010 =
b00000000000000000000000000000010 >
b00000000000000000000000000000010 ?
b00000000000000000000000000000001 D
b00000000000000000000000000000001 E
b00000000000000000000000000000001 F
1H
1J
1L
1N
b00000000000000000000000000000011 U
b00000000000000000000000000000011 V
b00000000000000000000000000000011 W
1X
1b
b00000000000000000000000000000010 i
b00000000000000000000000000000010 j
b00000000000000000000000000000010 k
1l
1v
b00000000000000000000000000000001 }
b00000000000000000000000000000001 !"
b00000000000000000000000000000001 ""
1#"
#1680000000
0!
0.
0N
0b
0v
#1720000000
1!
1.
0G
0I
0K
b1 M
1N
0P
1b
0d
1v
0x
#1760000000
0!
0.
0N
0b
0v
#1800000000
1!
1.
b0000000000000010 5
b0000000000000010 <
b0000000000000010 C
1G
0H
1I
0J
1K
0L
1N
1P
b0000000000000010 T
0X
1b
1d
b0000000000000010 h
0l
1v
1x
b0000000000000010 |
0#"
#1840000000
0!
0.
0N
0b
0v
#1880000000
1!
1.
b00000000000000000000000000000000 6
b00000000000000000000000000000000 7
b00000000000000000000000000000000 8
b00000000000000000000000000000000 =
b00000000000000000000000000000000 >
b00000000000000000000000000000000 ?
b00000000000000000000000000000000 D
b00000000000000000000000000000000 E
b00000000000000000000000000000000 F
1N
b00000000000000000000000000000000 U
b00000000000000000000000000000000 V
b00000000000000000000000000000000 W
b00000000000000000000000000000011 Y
b00000000000000000000000000000011 Z
b00000000000000000000000000000011 [
b0000000000000010 \
b00000000000000000000000000000000 ]
b00000000000000000000000000000000 ^
b00000000000000000000000000000000 _
b0 `
1b
b00000000000000000000000000000000 i
b00000000000000000000000000000000 j
b00000000000000000000000000000000 k
b00000000000000000000000000000010 m
b00000000000000000000000000000010 n
b00000000000000000000000000000010 o
b0000000000000010 p
b00000000000000000000000000000000 q
b00000000000000000000000000000000 r
b00000000000000000000000000000000 s
b0 t
1v
b00000000000000000000000000000000 }
b00000000000000000000000000000000 !"
b00000000000000000000000000000000 ""
b00000000000000000000000000000001 $"
b00000000000000000000000000000001 %"
b00000000000000000000000000000001 &"
b0000000000000010 '"
b00000000000000000000000000000000 ("
b00000000000000000000000000000000 )"
b00000000000000000000000000000000 *"
b0 +"
#1920000000
0!
0.
0N
0b
0v
#1960000000
1!
1.
1N
b00000000000000000000000000000110 Y
b00000000000000000000000000000110 Z
b00000000000000000000000000000110 [
b0000000000000001 \
b1 `
1b
b00000000000000000000000000000100 m
b00000000000000000000000000000100 n
b00000000000000000000000000000100 o
b0000000000000001 p
b1 t
1v
b00000000000000000000000000000010 $"
b00000000000000000000000000000010 %"
b00000000000000000000000000000010 &"
b0000000000000001 '"
b1 +"
#2000000000
0!
0.
0N
0b
0v
#2040000000
1!
1.
1N
b00000000000000000000000000001100 Y
b00000000000000000000000000001100 Z
b00000000000000000000000000001100 [
b0000000000000000 \
b00000000000000000000000000000110 ]
b00000000000000000000000000000110 ^
b00000000000000000000000000000110 _
b10 `
1b
b00000000000000000000000000001000 m
b00000000000000000000000000001000 n
b00000000000000000000000000001000 o
b0000000000000000 p
b00000000000000000000000000000100 q
b00000000000000000000000000000100 r
b00000000000000000000000000000100 s
b10 t
1v
b00000000000000000000000000000100 $"
b00000000000000000000000000000100 %"
b00000000000000000000000000000100 &"
b0000000000000000 '"
b00000000000000000000000000000010 ("
b00000000000000000000000000000010 )"
b00000000000000000000000000000010 *"
b10 +"
#2080000000
0!
0.
0N
0b
0v
#2120000000
1!
1.
1N
b00000000000000000000000000011000 Y
b00000000000000000000000000011000 Z
b00000000000000000000000000011000 [
b11 `
1b
b00000000000000000000000000010000 m
b00000000000000000000000000010000 n
b00000000000000000000000000010000 o
b11 t
1v
b00000000000000000000000000001000 $"
b00000000000000000000000000001000 %"
b00000000000000000000000000001000 &"
b11 +"
#2160000000
0!
0.
0N
0b
0v
#2200000000
1!
1.
1N
b00000000000000000000000000110000 Y
b00000000000000000000000000110000 Z
b00000000000000000000000000110000 [
b100 `
1b
b00000000000000000000000000100000 m
b00000000000000000000000000100000 n
b00000000000000000000000000100000 o
b100 t
1v
b00000000000000000000000000010000 $"
b00000000000000000000000000010000 %"
b00000000000000000000000000010000 &"
b100 +"
#2240000000
0!
0.
0N
0b
0v
#2280000000
1!
1.
1N
b00000000000000000000000001100000 Y
b00000000000000000000000001100000 Z
b00000000000000000000000001100000 [
b101 `
1b
b00000000000000000000000001000000 m
b00000000000000000000000001000000 n
b00000000000000000000000001000000 o
b101 t
1v
b00000000000000000000000000100000 $"
b00000000000000000000000000100000 %"
b00000000000000000000000000100000 &"
b101 +"
#2320000000
0!
0.
0N
0b
0v
#2360000000
1!
1.
1N
b00000000000000000000000011000000 Y
b00000000000000000000000011000000 Z
b00000000000000000000000011000000 [
b110 `
1b
b00000000000000000000000010000000 m
b00000000000000000000000010000000 n
b00000000000000000000000010000000 o
b110 t
1v
b00000000000000000000000001000000 $"
b00000000000000000000000001000000 %"
b00000000000000000000000001000000 &"
b110 +"
#2400000000
0!
0.
0N
0b
0v
#2440000000
1!
1.
1N
b00000000000000000000000110000000 Y
b00000000000000000000000110000000 Z
b00000000000000000000000110000000 [
b111 `
1b
b00000000000000000000000100000000 m
b00000000000000000000000100000000 n
b00000000000000000000000100000000 o
b111 t
1v
b00000000000000000000000010000000 $"
b00000000000000000000000010000000 %"
b00000000000000000000000010000000 &"
b111 +"
#2480000000
0!
0.
0N
0b
0v
#2520000000
1!
1.
1N
b00000000000000000000001100000000 Y
b00000000000000000000001100000000 Z
b00000000000000000000001100000000 [
b1000 `
1b
b00000000000000000000001000000000 m
b00000000000000000000001000000000 n
b00000000000000000000001000000000 o
b1000 t
1v
b00000000000000000000000100000000 $"
b00000000000000000000000100000000 %"
b00000000000000000000000100000000 &"
b1000 +"
#2560000000
0!
0.
0N
0b
0v
#2600000000
1!
1.
1N
b00000000000000000000011000000000 Y
b00000000000000000000011000000000 Z
b00000000000000000000011000000000 [
b1001 `
1b
b00000000000000000000010000000000 m
b00000000000000000000010000000000 n
b00000000000000000000010000000000 o
b1001 t
1v
b00000000000000000000001000000000 $"
b00000000000000000000001000000000 %"
b00000000000000000000001000000000 &"
b1001 +"
#2640000000
0!
0.
0N
0b
0v
#2680000000
1!
1.
1N
b00000000000000000000110000000000 Y
b00000000000000000000110000000000 Z
b00000000000000000000110000000000 [
b1010 `
1b
b00000000000000000000100000000000 m
b00000000000000000000100000000000 n
b00000000000000000000100000000000 o
b1010 t
1v
b00000000000000000000010000000000 $"
b00000000000000000000010000000000 %"
b00000000000000000000010000000000 &"
b1010 +"
#2720000000
0!
0.
0N
0b
0v
#2760000000
1!
1.
1N
b00000000000000000001100000000000 Y
b00000000000000000001100000000000 Z
b00000000000000000001100000000000 [
b1011 `
1b
b00000000000000000001000000000000 m
b00000000000000000001000000000000 n
b00000000000000000001000000000000 o
b1011 t
1v
b00000000000000000000100000000000 $"
b00000000000000000000100000000000 %"
b00000000000000000000100000000000 &"
b1011 +"
#2800000000
0!
0.
0N
0b
0v
#2840000000
1!
1.
1N
b00000000000000000011000000000000 Y
b00000000000000000011000000000000 Z
b00000000000000000011000000000000 [
b1100 `
1b
b00000000000000000010000000000000 m
b00000000000000000010000000000000 n
b00000000000000000010000000000000 o
b1100 t
1v
b00000000000000000001000000000000 $"
b00000000000000000001000000000000 %"
b00000000000000000001000000000000 &"
b1100 +"
#2880000000
0!
0.
0N
0b
0v
#2920000000
1!
1.
1N
b00000000000000000110000000000000 Y
b00000000000000000110000000000000 Z
b00000000000000000110000000000000 [
b1101 `
1b
b00000000000000000100000000000000 m
b00000000000000000100000000000000 n
b00000000000000000100000000000000 o
b1101 t
1v
b00000000000000000010000000000000 $"
b00000000000000000010000000000000 %"
b00000000000000000010000000000000 &"
b1101 +"
#2960000000
0!
0.
0N
0b
0v
#3000000000
1!
1.
1N
b00000000000000001100000000000000 Y
b00000000000000001100000000000000 Z
b00000000000000001100000000000000 [
b1110 `
1b
b00000000000000001000000000000000 m
b00000000000000001000000000000000 n
b00000000000000001000000000000000 o
b1110 t
1v
b00000000000000000100000000000000 $"
b00000000000000000100000000000000 %"
b00000000000000000100000000000000 &"
b1110 +"
#3040000000
0!
0.
0N
0b
0v
#3080000000
1!
1.
1N
b00000000000000011000000000000000 Y
b00000000000000011000000000000000 Z
b00000000000000011000000000000000 [
b1111 `
1b
b00000000000000010000000000000000 m
b00000000000000010000000000000000 n
b00000000000000010000000000000000 o
b1111 t
1v
b00000000000000001000000000000000 $"
b00000000000000001000000000000000 %"
b00000000000000001000000000000000 &"
b1111 +"
#3120000000
0!
0.
0N
0b
0v
#3160000000
1!
1.
1N
b00000000000000110000000000000000 Y
b00000000000000110000000000000000 Z
b00000000000000110000000000000000 [
b10000 `
1b
b00000000000000100000000000000000 m
b00000000000000100000000000000000 n
b00000000000000100000000000000000 o
b10000 t
1v
b00000000000000010000000000000000 $"
b00000000000000010000000000000000 %"
b00000000000000010000000000000000 &"
b10000 +"
#3200000000
0!
0.
0N
0b
0v
#3240000000
1!
1.
1N
b10001 `
1b
b10001 t
1v
b10001 +"
#3280000000
0!
0.
0N
0b
0v
#3320000000
1!
1.
b00000000000000000000000000000110 6
b00000000000000000000000000000110 7
b00000000000000000000000000000110 8
b00000000000000000000000000000100 =
b00000000000000000000000000000100 >
b00000000000000000000000000000100 ?
b00000000000000000000000000000010 D
b00000000000000000000000000000010 E
b00000000000000000000000000000010 F
1H
1J
1L
1N
b00000000000000000000000000000110 U
b00000000000000000000000000000110 V
b00000000000000000000000000000110 W
1X
1b
b00000000000000000000000000000100 i
b00000000000000000000000000000100 j
b00000000000000000000000000000100 k
1l
1v
b00000000000000000000000000000010 }
b00000000000000000000000000000010 !"
b00000000000000000000000000000010 ""
1#"
#3360000000
0!
0.
0N
0b
0v
#3400000000
1!
1.
0G
0I
0K
b10 M
1N
0P
1b
0d
1v
0x
#3440000000
0!
0.
0N
0b
0v
#3480000000
1!
1.
b0000000000000011 5
b0000000000000011 <
b0000000000000011 C
1G
0H
1I
0J
1K
0L
1N
1P
b0000000000000011 T
0X
1b
1d
b0000000000000011 h
0l
1v
1x
b0000000000000011 |
0#"
#3520000000
0!
0.
0N
0b
0v
#3560000000
1!
1.
b00000000000000000000000000000000 6
b00000000000000000000000000000000 7
b00000000000000000000000000000000 8
b00000000000000000000000000000000 =
b00000000000000000000000000000000 >
b00000000000000000000000000000000 ?
b00000000000000000000000000000000 D
b00000000000000000000000000000000 E
b00000000000000000000000000000000 F
1N
b00000000000000000000000000000000 U
b00000000000000000000000000000000 V
b00000000000000000000000000000000 W
b00000000000000000000000000000011 Y
b00000000000000000000000000000011 Z
b00000000000000000000000000000011 [
b0000000000000011 \
b00000000000000000000000000000000 ]
b00000000000000000000000000000000 ^
b00000000000000000000000000000000 _
b0 `
1b
b00000000000000000000000000000000 i
b00000000000000000000000000000000 j
b00000000000000000000000000000000 k
b00000000000000000000000000000010 m
b00000000000000000000000000000010 n
b00000000000000000000000000000010 o
b0000000000000011 p
b00000000000000000000000000000000 q
b00000000000000000000000000000000 r
b00000000000000000000000000000000 s
b0 t
1v
b00000000000000000000000000000000 }
b00000000000000000000000000000000 !"
b00000000000000000000000000000000 ""
b00000000000000000000000000000001 $"
b00000000000000000000000000000001 %"
b00000000000000000000000000000001 &"
b0000000000000011 '"
b00000000000000000000000000000000 ("
b00000000000000000000000000000000 )"
b00000000000000000000000000000000 *"
b0 +"
#3600000000
0!
0.
0N
0b
0v
#3640000000
1!
1.
1N
b00000000000000000000000000000110 Y
b00000000000000000000000000000110 Z
b00000000000000000000000000000110 [
b0000000000000001 \
b00000000000000000000000000000011 ]
b00000000000000000000000000000011 ^
b00000000000000000000000000000011 _
b1 `
1b
b00000000000000000000000000000100 m
b00000000000000000000000000000100 n
b00000000000000000000000000000100 o
b0000000000000001 p
b00000000000000000000000000000010 q
b00000000000000000000000000000010 r
b00000000000000000000000000000010 s
b1 t
1v
b00000000000000000000000000000010 $"
b00000000000000000000000000000010 %"
b00000000000000000000000000000010 &"
b0000000000000001 '"
b00000000000000000000000000000001 ("
b00000000000000000000000000000001 )"
b00000000000000000000000000000001 *"
b1 +"
#3680000000
0!
0.
0N
0b
0v
#3720000000
1!
1.
1N
b00000000000000000000000000001100 Y
b00000000000000000000000000001100 Z
b00000000000000000000000000001100 [
b0000000000000000 \
b00000000000000000000000000001001 ]
b00000000000000000000000000001001 ^
b00000000000000000000000000001001 _
b10 `
1b
b00000000000000000000000000001000 m
b00000000000000000000000000001000 n
b00000000000000000000000000001000 o
b0000000000000000 p
b00000000000000000000000000000110 q
b00000000000000000000000000000110 r
b00000000000000000000000000000110 s
b10 t
1v
b00000000000000000000000000000100 $"
b00000000000000000000000000000100 %"
b00000000000000000000000000000100 &"
b0000000000000000 '"
b00000000000000000000000000000011 ("
b00000000000000000000000000000011 )"
b00000000000000000000000000000011 *"
b10 +"
#3760000000
0!
0.
0N
0b
0v
#3800000000
1!
1.
1N
b00000000000000000000000000011000 Y
b00000000000000000000000000011000 Z
b00000000000000000000000000011000 [
b11 `
1b
b00000000000000000000000000010000 m
b00000000000000000000000000010000 n
b00000000000000000000000000010000 o
b11 t
1v
b00000000000000000000000000001000 $"
b00000000000000000000000000001000 %"
b00000000000000000000000000001000 &"
b11 +"
#3840000000
0!
0.
0N
0b
0v
#3880000000
1!
1.
1N
b00000000000000000000000000110000 Y
b00000000000000000000000000110000 Z
b00000000000000000000000000110000 [
b100 `
1b
b00000000000000000000000000100000 m
b00000000000000000000000000100000 n
b00000000000000000000000000100000 o
b100 t
1v
b00000000000000000000000000010000 $"
b00000000000000000000000000010000 %"
b00000000000000000000000000010000 &"
b100 +"
#3920000000
0!
0.
0N
0b
0v
#3960000000
1!
1.
1N
b00000000000000000000000001100000 Y
b00000000000000000000000001100000 Z
b00000000000000000000000001100000 [
b101 `
1b
b00000000000000000000000001000000 m
b00000000000000000000000001000000 n
b00000000000000000000000001000000 o
b101 t
1v
b00000000000000000000000000100000 $"
b00000000000000000000000000100000 %"
b00000000000000000000000000100000 &"
b101 +"
#4000000000
0!
0.
0N
0b
0v
#4040000000
1!
1.
1N
b00000000000000000000000011000000 Y
b00000000000000000000000011000000 Z
b00000000000000000000000011000000 [
b110 `
1b
b00000000000000000000000010000000 m
b00000000000000000000000010000000 n
b00000000000000000000000010000000 o
b110 t
1v
b00000000000000000000000001000000 $"
b00000000000000000000000001000000 %"
b00000000000000000000000001000000 &"
b110 +"
#4080000000
0!
0.
0N
0b
0v
#4120000000
1!
1.
1N
b00000000000000000000000110000000 Y
b00000000000000000000000110000000 Z
b00000000000000000000000110000000 [
b111 `
1b
b00000000000000000000000100000000 m
b00000000000000000000000100000000 n
b00000000000000000000000100000000 o
b111 t
1v
b00000000000000000000000010000000 $"
b00000000000000000000000010000000 %"
b00000000000000000000000010000000 &"
b111 +"
#4160000000
0!
0.
0N
0b
0v
