modules/goertzel/goertzel_tb.vcd
$date
  Sat Jul 27 08:28:19 2019
$end
$version
  GHDL v0
$end
$timescale
  1 fs
$end
$var reg 1 ! clk $end
$var reg 1 " rst $end
$var reg 16 # r_x_in[15:0] $end
$var reg 16 $ r_y_out[15:0] $end
$var reg 1 % r_start $end
$var reg 1 & r_valid $end
$scope module inst_dut_goertzel $end
$var reg 1 ' clk $end
$var reg 1 ( rst $end
$var reg 1 ) sync $end
$var reg 16 * x_in[15:0] $end
$var reg 16 + y_out[15:0] $end
$var reg 1 , valid $end
$comment r_state is not handled $end
$var reg 16 - r_coef[15:0] $end
$var reg 16 . r_q0[15:0] $end
$var reg 16 / r_q1[15:0] $end
$var reg 16 0 r_q2[15:0] $end
$var reg 16 1 r_aux_sum[15:0] $end
$var reg 16 2 r_y_out[15:0] $end 
$var integer 32 3 r_iteration $end
$upscope $end
$enddefinitions $end
#0
0!
1"
b0000000000000000 #
b0000000000000000 $
0%
0&
0'
1(
0)
b0000000000000000 *
b0000000000000000 +
0,
bUUUUUUUUUUUUUUUU -
b0000000000000000 .
b0000000000000000 /
b0000000000000000 0
b0000000000000000 1
b0000000000000000 2
b0 3
#40000000
1!
1'
#80000000
0!
0'
#100000000
0"
1%
0(
1)
#120000000
1!
0%
1'
0)
#160000000
0!
0'
#200000000
1!
1'
b1 3
#240000000
0!
0'
#280000000
1!
1'
#320000000
0!
0'
#360000000
1!
1'
b10 3
#400000000
0!
0'
#440000000
1!
1'
#480000000
0!
0'
#520000000
1!
1'
b11 3
#560000000
0!
0'
#600000000
1!
1'
#640000000
0!
0'
#680000000
1!
1'
b100 3
#720000000
0!
0'
#760000000
1!
1'
#800000000
0!
0'
#840000000
1!
1'
b101 3
#880000000
0!
0'
#920000000
1!
1'
#960000000
0!
0'
#1000000000
1!
1'
b110 3
#1040000000
0!
0'
#1080000000
1!
1'
#1120000000
0!
0'
#1160000000
1!
1'
b111 3
#1200000000
0!
0'
#1240000000
1!
1'
#1280000000
0!
0'
#1320000000
1!
1'
b1000 3
#1360000000
0!
0'
#1400000000
1!
1'
#1440000000
0!
0'
#1480000000
1!
1'
b1001 3
#1520000000
0!
0'
#1560000000
1!
1'
#1600000000
0!
0'
#1640000000
1!
1'
b1010 3
#1680000000
0!
0'
#1720000000
1!
1'
#1760000000
0!
0'
#1800000000
1!
1'
#1840000000
0!
0'
#1880000000
1!
1&
1'
1,
#1920000000
0!
0'
#1960000000
1!
0&
1'
0,
