modules/cordic/cordic_rot_tb.vcd
$date
  Wed May 01 21:21:09 2019
$end
$version
  GHDL v0
$end
$timescale
  1 fs
$end
$var reg 1 ! clk $end
$var reg 1 " rst $end
$var reg 16 # r_theta[15:0] $end
$var reg 16 $ r_x_out[15:0] $end
$var reg 16 % r_y_out[15:0] $end
$var reg 1 & r_start $end
$var reg 1 ' r_valid $end
$scope module inst_cordic $end
$var reg 1 ( clk $end
$var reg 1 ) rst $end
$var reg 1 * sync $end
$var reg 16 + angle[15:0] $end
$var reg 1 , valid $end
$var reg 16 - x_out[15:0] $end
$var reg 16 . y_out[15:0] $end
$var integer 32 / r_cnt $end
$comment r_state is not handled $end
$var reg 1 0 r_dir $end
$var integer 32 1 r_quadrant $end
$var reg 16 2 r_x[15:0] $end
$var reg 16 3 r_y[15:0] $end
$var reg 16 4 r_z[15:0] $end
$var integer 32 5 r_iteration $end
$var integer 32 6 r_debug_state $end
$upscope $end
$enddefinitions $end
#0
0!
1"
b0000000000000000 #
b0000000000000000 $
b0000000000000000 %
0&
0'
0(
1)
0*
b0000000000000000 +
0,
b0000000000000000 -
b0000000000000000 .
b0 /
00
b0 1
b0000000000000000 2
b0000000000000000 3
b0000000000000000 4
b0 5
b0 6
#40000000
1!
1(
#80000000
0!
0(
#100000000
0"
1&
0)
1*
#120000000
1!
0&
1(
0*
b1 6
#160000000
0!
0(
#200000000
1!
1(
b0000100110110000 2
b10 6
#240000000
0!
0(
#280000000
1!
1(
b0000100110110000 3
b1110000000000001 4
b1 5
#320000000
0!
0(
#360000000
1!
1(
10
b0000111010001000 2
b0000010011011000 3
b1111001011100100 4
b10 5
#400000000
0!
0(
#440000000
1!
1(
b0000111110111110 2
b0000000100110110 3
b1111110011011111 4
b11 5
#480000000
0!
0(
#520000000
1!
1(
b0000111111100100 2
b1111111100111111 3
b0000000111110000 4
b100 5
#560000000
0!
0(
#600000000
1!
1(
00
b0000111111110001 2
b0000000000111101 3
b1111111101100101 4
b101 5
#640000000
0!
0(
#680000000
1!
1(
10
b0000111111110010 2
b1111111110111110 3
b0000000010101010 4
b110 5
#720000000
0!
0(
#760000000
1!
1(
00
b0000111111110100 2
b1111111111111101 3
b0000000000001000 4
b111 5
#800000000
0!
0(
#840000000
1!
1(
b0000111111110101 2
b0000000000011100 3
b1111111110110111 4
b1000 5
#880000000
0!
0(
#920000000
1!
1(
10
b0000000000001101 3
b1111111111011111 4
b1001 5
#960000000
0!
0(
#1000000000
1!
1(
b0000000000000110 3
b1111111111110011 4
b1010 5
#1040000000
0!
0(
#1080000000
1!
1(
b0000000000000011 3
b1111111111111101 4
b1011 5
#1120000000
0!
0(
#1160000000
1!
1(
b0000000000000010 3
b0000000000000010 4
b1100 5
#1200000000
0!
0(
#1240000000
1!
1(
00
b0000000000000000 4
b1101 5
#1280000000
0!
0(
#1320000000
1!
1(
b1111111111111111 4
b1110 5
#1360000000
0!
0(
#1400000000
1!
1(
10
b1111 5
#1440000000
0!
0(
#1480000000
1!
1'
1(
1,
b11 6
#1520000000
0!
0(
#1560000000
1!
b0000111111110101 $
b0000000000000010 %
0'
1(
0,
b0000111111110101 -
b0000000000000010 .
b0 6
#1600000000
0!
0(
#1640000000
1!
1(
00
b0000000000000000 4
b0 5
