modules/avalon_mem/avalon_mem_tb.vcd
$date
  Wed Apr 22 22:32:38 2020
$end
$version
  GHDL v0
$end
$timescale
  1 fs
$end
$var reg 1 ! clk $end
$var reg 1 " rst $end
$var reg 1 # r_start $end
$var reg 32 $ r_data_in_0[31:0] $end
$var reg 32 % r_data_in_1[31:0] $end
$var reg 32 & r_data_in_2[31:0] $end
$var reg 32 ' r_data_in_3[31:0] $end
$var reg 32 ( r_data_in_0_out[31:0] $end
$var reg 32 ) r_data_in_1_out[31:0] $end
$var reg 32 * r_data_in_2_out[31:0] $end
$var reg 32 + r_data_in_3_out[31:0] $end
$var reg 29 , r_f2h_sdram_address[28:0] $end
$var reg 30 - r_f2h_sdram_address1[29:0] $end
$var reg 8 . r_f2h_sdram_burstcount[7:0] $end
$var reg 8 / r_f2h_sdram1_burstcount[7:0] $end
$var reg 1 0 r_f2h_sdram_waitrequest $end
$var reg 64 1 r_f2h_sdram_writedata[63:0] $end
$var reg 8 2 r_f2h_sdram_byteenable[7:0] $end
$var reg 1 3 r_f2h_sdram_write $end
$var reg 1 4 r_valid_write $end
$var reg 1 5 r_f2h_sdram1_waitrequest $end
$var reg 32 6 r_f2h_sdram_readdata[31:0] $end
$var reg 1 7 r_f2h_sdram_readdatavalid $end
$var reg 1 8 r_f2h_sdram_read $end
$var reg 1 9 r_valid_read $end
$scope module inst_write_64 $end
$var reg 1 : reset $end
$var reg 1 ; clk $end
$var reg 1 < start $end
$var reg 32 = data_in_0[31:0] $end
$var reg 32 > data_in_1[31:0] $end
$var reg 32 ? data_in_2[31:0] $end
$var reg 32 @ data_in_3[31:0] $end
$var reg 29 A f2h_sdram_address[28:0] $end
$var reg 8 B f2h_sdram_burstcount[7:0] $end
$var reg 1 C f2h_sdram_waitrequest $end
$var reg 64 D f2h_sdram_writedata[63:0] $end
$var reg 8 E f2h_sdram_byteenable[7:0] $end
$var reg 1 F f2h_sdram_write $end
$var reg 1 G valid $end
$comment r_fsm is not handled $end
$upscope $end
$enddefinitions $end
#0
0!
1"
0#
b11111111111111111111111111111111 $
b00000000000000000000000000000000 %
b11111111111111111111111111111111 &
b00000000000000000000000000000000 '
bUUUUUUUUUUUUUUUUUUUUUUUUUUUUUUUU (
bUUUUUUUUUUUUUUUUUUUUUUUUUUUUUUUU )
bUUUUUUUUUUUUUUUUUUUUUUUUUUUUUUUU *
bUUUUUUUUUUUUUUUUUUUUUUUUUUUUUUUU +
b00000000000000000000000000000 ,
b000000000000000000000000000000 -
b00000000 .
bUUUUUUUU /
00
b0000000000000000000000000000000000000000000000000000000000000000 1
b11111111 2
03
04
05
bUUUUUUUUUUUUUUUUUUUUUUUUUUUUUUUU 6
U7
U8
U9
1:
0;
0<
b11111111111111111111111111111111 =
b00000000000000000000000000000000 >
b11111111111111111111111111111111 ?
b00000000000000000000000000000000 @
b00000000000000000000000000000 A
b00000000 B
0C
b0000000000000000000000000000000000000000000000000000000000000000 D
b11111111 E
0F
0G
#20000000
1!
1;
#40000000
0!
0;
#60000000
1!
1;
#80000000
0!
0;
#100000000
1!
0"
0:
1;
#120000000
0!
0;
#140000000
1!
1;
#160000000
0!
0;
#180000000
1!
1;
#200000000
0!
1#
0;
1<
#220000000
1!
b00000000000000000000000000001 ,
b00000010 .
b0000000000000000000000000000000011111111111111111111111111111111 1
13
1;
b00000000000000000000000000001 A
b00000010 B
b0000000000000000000000000000000011111111111111111111111111111111 D
1F
#240000000
0!
0;
#250000000
0#
0<
#260000000
1!
1;
#280000000
0!
0;
#300000000
1!
b0000000000000000000000000000000000000000000000000000000000000000 1
1;
b0000000000000000000000000000000000000000000000000000000000000000 D
#320000000
0!
0;
#340000000
1!
b0000000000000000000000000000000011111111111111111111111111111111 1
14
1;
b0000000000000000000000000000000011111111111111111111111111111111 D
1G
#360000000
0!
0;
#380000000
1!
b0000000000000000000000000000000000000000000000000000000000000000 1
04
1;
b0000000000000000000000000000000000000000000000000000000000000000 D
0G
