modules/avalon_mem/avalon_mem_tb.vcd
$date
  Thu Apr 23 08:07:52 2020
$end
$version
  GHDL v0
$end
$timescale
  1 fs
$end
$var reg 1 ! clk $end
$var reg 1 " rst $end
$var reg 1 # r_start $end
$var reg 29 $ r_f2h_sdram_address[28:0] $end
$var reg 30 % r_f2h_sdram_address1[29:0] $end
$var reg 8 & r_f2h_sdram_burstcount[7:0] $end
$var reg 8 ' r_f2h_sdram1_burstcount[7:0] $end
$var reg 1 ( r_f2h_sdram_waitrequest $end
$var reg 64 ) r_f2h_sdram_writedata[63:0] $end
$var reg 8 * r_f2h_sdram_byteenable[7:0] $end
$var reg 1 + r_f2h_sdram_write $end
$var reg 1 , r_valid_write $end
$var reg 1 - r_f2h_sdram1_waitrequest $end
$var reg 32 . r_f2h_sdram_readdata[31:0] $end
$var reg 1 / r_f2h_sdram_readdatavalid $end
$var reg 1 0 r_f2h_sdram_read $end
$var reg 1 1 r_valid_read $end
$comment r_data_in is not handled $end
$comment r_data_out is not handled $end
$scope module inst_write_64 $end
$var reg 1 2 reset $end
$var reg 1 3 clk $end
$var reg 1 4 start $end
$comment data_in is not handled $end
$var reg 29 5 f2h_sdram_address[28:0] $end
$var reg 8 6 f2h_sdram_burstcount[7:0] $end
$var reg 1 7 f2h_sdram_waitrequest $end
$var reg 64 8 f2h_sdram_writedata[63:0] $end
$var reg 8 9 f2h_sdram_byteenable[7:0] $end
$var reg 1 : f2h_sdram_write $end
$var reg 1 ; valid $end
$comment r_fsm is not handled $end
$var integer 32 < r_cnt $end
$upscope $end
$scope module inst_read32 $end
$var reg 1 = reset $end
$var reg 1 > clk $end
$var reg 1 ? start $end
$comment data_out is not handled $end
$var reg 30 @ f2h_sdram_address[29:0] $end
$var reg 8 A f2h_sdram_burstcount[7:0] $end
$var reg 1 B f2h_sdram_waitrequest $end
$var reg 32 C f2h_sdram_readdata[31:0] $end
$var reg 1 D f2h_sdram_readdatavalid $end
$var reg 1 E f2h_sdram_read $end
$var reg 1 F valid $end
$comment r_fsm is not handled $end
$var integer 32 G r_cnt $end
$upscope $end
$enddefinitions $end
#0
0!
1"
0#
b00000000000000000000000000000 $
b000000000000000000000000000000 %
b00000000 &
b00000000 '
0(
b0000000000000000000000000000000000000000000000000000000000000000 )
b11111111 *
0+
0,
0-
bUUUUUUUUUUUUUUUUUUUUUUUUUUUUUUUU .
U/
00
01
12
03
04
b00000000000000000000000000000 5
b00000000 6
07
b0000000000000000000000000000000000000000000000000000000000000000 8
b11111111 9
0:
0;
b0 <
1=
0>
0?
b000000000000000000000000000000 @
b00000000 A
0B
bUUUUUUUUUUUUUUUUUUUUUUUUUUUUUUUU C
UD
0E
0F
b0 G
#20000000
1!
13
1>
#40000000
0!
03
0>
#60000000
1!
13
1>
#80000000
0!
03
0>
#100000000
1!
0"
02
13
0=
1>
#120000000
0!
03
0>
#140000000
1!
13
1>
#160000000
0!
03
0>
#180000000
1!
13
1>
#200000000
0!
1#
03
14
0>
#220000000
1!
b00000000000000000000000000001 $
b00000110 &
1+
13
b00000000000000000000000000001 5
b00000110 6
1:
b1 <
1>
#240000000
0!
03
0>
#250000000
0#
04
#260000000
1!
13
b10 <
1>
#280000000
0!
03
0>
#300000000
1!
13
b11 <
1>
#320000000
0!
03
0>
#340000000
1!
13
b100 <
1>
#360000000
0!
03
0>
#380000000
1!
1,
13
1;
b101 <
1>
1?
#400000000
0!
03
0>
#420000000
1!
b000000000000000000000000000001 %
b00000110 '
0+
0,
10
13
0:
0;
1>
0?
b000000000000000000000000000001 @
b00000110 A
1E
b1 G
#440000000
0!
03
0>
#460000000
1!
13
b0 <
1>
b10 G
#480000000
0!
03
0>
#500000000
1!
13
1>
b11 G
#520000000
0!
03
0>
#540000000
1!
13
1>
b100 G
#560000000
0!
03
0>
#580000000
1!
11
13
1>
1F
b101 G
#600000000
0!
03
0>
#620000000
1!
00
01
13
1>
0E
0F
#640000000
0!
03
0>
#660000000
1!
13
1>
b0 G
