modules/avalon_mem/avalon_mem_tb.vcd
$date
  Thu Apr 23 22:36:39 2020
$end
$version
  GHDL v0
$end
$timescale
  1 fs
$end
$var reg 1 ! clk $end
$var reg 1 " rst $end
$var reg 1 # r_start $end
$var reg 29 $ r_f2h_sdram_address[28:0] $end
$var reg 30 % r_f2h_sdram_address1[29:0] $end
$var reg 8 & r_f2h_sdram_burstcount[7:0] $end
$var reg 8 ' r_f2h_sdram1_burstcount[7:0] $end
$var reg 1 ( r_f2h_sdram_waitrequest $end
$var reg 64 ) r_f2h_sdram_writedata[63:0] $end
$var reg 8 * r_f2h_sdram_byteenable[7:0] $end
$var reg 1 + r_f2h_sdram_write $end
$var reg 1 , r_valid_write $end
$var reg 1 - r_f2h_sdram1_waitrequest $end
$var reg 32 . r_f2h_sdram_readdata[31:0] $end
$var reg 1 / r_f2h_sdram_readdatavalid $end
$var reg 1 0 r_f2h_sdram_read $end
$var reg 1 1 r_valid_read $end
$comment r_data_in is not handled $end
$comment r_data_out is not handled $end
$comment r_line is not handled $end
$var reg 1 2 r_start_read $end
$scope module inst_write_64 $end
$var reg 1 3 reset $end
$var reg 1 4 clk $end
$var reg 1 5 start $end
$comment data_in is not handled $end
$var reg 29 6 f2h_sdram_address[28:0] $end
$var reg 8 7 f2h_sdram_burstcount[7:0] $end
$var reg 1 8 f2h_sdram_waitrequest $end
$var reg 64 9 f2h_sdram_writedata[63:0] $end
$var reg 8 : f2h_sdram_byteenable[7:0] $end
$var reg 1 ; f2h_sdram_write $end
$var reg 1 < valid $end
$comment r_fsm is not handled $end
$var integer 32 = r_cnt $end
$upscope $end
$scope module inst_read32 $end
$var reg 1 > reset $end
$var reg 1 ? clk $end
$var reg 1 @ start $end
$comment data_out is not handled $end
$var reg 30 A f2h_sdram_address[29:0] $end
$var reg 8 B f2h_sdram_burstcount[7:0] $end
$var reg 1 C f2h_sdram_waitrequest $end
$var reg 32 D f2h_sdram_readdata[31:0] $end
$var reg 1 E f2h_sdram_readdatavalid $end
$var reg 1 F f2h_sdram_read $end
$var reg 1 G valid $end
$comment r_fsm is not handled $end
$var integer 32 H r_cnt $end
$upscope $end
$enddefinitions $end
#0
0!
1"
0#
b00000000000000000000000000000 $
b000000000000000000000000000000 %
b00000000 &
b00000000 '
0(
b0000000000000000000000000000000000000000000000000000000000000000 )
b11111111 *
0+
0,
0-
bUUUUUUUUUUUUUUUUUUUUUUUUUUUUUUUU .
U/
00
01
U2
13
04
05
b00000000000000000000000000000 6
b00000000 7
08
b0000000000000000000000000000000000000000000000000000000000000000 9
b11111111 :
0;
0<
b0 =
1>
0?
U@
b000000000000000000000000000000 A
b00000000 B
0C
bUUUUUUUUUUUUUUUUUUUUUUUUUUUUUUUU D
UE
0F
0G
b0 H
#20000000
1!
14
1?
#40000000
0!
04
0?
#60000000
1!
14
1?
#80000000
0!
04
0?
#100000000
1!
0"
03
14
0>
1?
#120000000
0!
04
0?
#140000000
1!
14
1?
#160000000
0!
04
0?
#180000000
1!
14
1?
#200000000
0!
1#
04
15
0?
#220000000
1!
b00000000000000000000000000001 $
b10000000 &
b0000000000000000000000000000000011111111111111111111111111111111 )
1+
14
b00000000000000000000000000001 6
b10000000 7
b0000000000000000000000000000000011111111111111111111111111111111 9
1;
b1 =
1?
#240000000
0!
04
0?
#250000000
0#
05
#260000000
1!
b0000000000000000000000000000000000000000000000000000000000000000 )
14
b0000000000000000000000000000000000000000000000000000000000000000 9
b10 =
1?
#280000000
0!
04
0?
#300000000
1!
b0000000000000000000000000000000011111111111111111111111111111111 )
14
b0000000000000000000000000000000011111111111111111111111111111111 9
b11 =
1?
#320000000
0!
04
0?
#340000000
1!
b0000000000000000000000000000000000000000000000000000000000000000 )
14
b0000000000000000000000000000000000000000000000000000000000000000 9
b100 =
1?
#360000000
0!
04
0?
#380000000
1!
b0000000000000000000000000000000011111111111111111111111111111111 )
14
b0000000000000000000000000000000011111111111111111111111111111111 9
b101 =
1?
#400000000
0!
04
0?
#420000000
1!
b0000000000000000000000000000000000000000000000000000000000000000 )
14
b0000000000000000000000000000000000000000000000000000000000000000 9
b110 =
1?
#440000000
0!
04
0?
#460000000
1!
14
b111 =
1?
#480000000
0!
04
0?
#500000000
1!
14
b1000 =
1?
#520000000
0!
04
0?
#540000000
1!
14
b1001 =
1?
#560000000
0!
04
0?
#580000000
1!
14
b1010 =
1?
#600000000
0!
04
0?
#620000000
1!
14
b1011 =
1?
#640000000
0!
04
0?
#660000000
1!
14
b1100 =
1?
#680000000
0!
04
0?
#700000000
1!
14
b1101 =
1?
#720000000
0!
04
0?
#740000000
1!
14
b1110 =
1?
#760000000
0!
04
0?
#780000000
1!
14
b1111 =
1?
#800000000
0!
04
0?
#820000000
1!
14
b10000 =
1?
#840000000
0!
04
0?
#860000000
1!
14
b10001 =
1?
#880000000
0!
04
0?
#900000000
1!
14
b10010 =
1?
#920000000
0!
04
0?
#940000000
1!
14
b10011 =
1?
#960000000
0!
04
0?
#980000000
1!
14
b10100 =
1?
#1000000000
0!
04
0?
#1020000000
1!
14
b10101 =
1?
#1040000000
0!
04
0?
#1060000000
1!
14
b10110 =
1?
#1080000000
0!
04
0?
#1100000000
1!
14
b10111 =
1?
#1120000000
0!
04
0?
#1140000000
1!
14
b11000 =
1?
#1160000000
0!
04
0?
#1180000000
1!
14
b11001 =
1?
#1200000000
0!
04
0?
#1220000000
1!
14
b11010 =
1?
#1240000000
0!
04
0?
#1260000000
1!
14
b11011 =
1?
#1280000000
0!
04
0?
#1300000000
1!
14
b11100 =
1?
#1320000000
0!
04
0?
#1340000000
1!
14
b11101 =
1?
#1360000000
0!
04
0?
#1380000000
1!
14
b11110 =
1?
#1400000000
0!
04
0?
#1420000000
1!
14
b11111 =
1?
#1440000000
0!
04
0?
#1460000000
1!
14
b100000 =
1?
#1480000000
0!
04
0?
#1500000000
1!
14
b100001 =
1?
#1520000000
0!
04
0?
#1540000000
1!
14
b100010 =
1?
#1560000000
0!
04
0?
#1580000000
1!
14
b100011 =
1?
#1600000000
0!
04
0?
#1620000000
1!
14
b100100 =
1?
#1640000000
0!
04
0?
#1660000000
1!
14
b100101 =
1?
#1680000000
0!
04
0?
#1700000000
1!
14
b100110 =
1?
#1720000000
0!
04
0?
#1740000000
1!
14
b100111 =
1?
#1760000000
0!
04
0?
#1780000000
1!
14
b101000 =
1?
#1800000000
0!
04
0?
#1820000000
1!
14
b101001 =
1?
#1840000000
0!
04
0?
#1860000000
1!
14
b101010 =
1?
#1880000000
0!
04
0?
#1900000000
1!
14
b101011 =
1?
#1920000000
0!
04
0?
#1940000000
1!
14
b101100 =
1?
#1960000000
0!
04
0?
#1980000000
1!
14
b101101 =
1?
#2000000000
0!
04
0?
#2020000000
1!
14
b101110 =
1?
#2040000000
0!
04
0?
#2060000000
1!
14
b101111 =
1?
#2080000000
0!
04
0?
#2100000000
1!
14
b110000 =
1?
#2120000000
0!
04
0?
#2140000000
1!
14
b110001 =
1?
#2160000000
0!
04
0?
#2180000000
1!
14
b110010 =
1?
#2200000000
0!
04
0?
#2220000000
1!
14
b110011 =
1?
#2240000000
0!
04
0?
#2260000000
1!
14
b110100 =
1?
#2280000000
0!
04
0?
#2300000000
1!
14
b110101 =
1?
#2320000000
0!
04
0?
#2340000000
1!
14
b110110 =
1?
#2360000000
0!
04
0?
#2380000000
1!
14
b110111 =
1?
#2400000000
0!
04
0?
#2420000000
1!
14
b111000 =
1?
#2440000000
0!
04
0?
#2460000000
1!
14
b111001 =
1?
#2480000000
0!
04
0?
#2500000000
1!
14
b111010 =
1?
#2520000000
0!
04
0?
#2540000000
1!
14
b111011 =
1?
#2560000000
0!
04
0?
#2580000000
1!
14
b111100 =
1?
#2600000000
0!
04
0?
#2620000000
1!
14
b111101 =
1?
#2640000000
0!
04
0?
#2660000000
1!
14
b111110 =
1?
#2680000000
0!
04
0?
#2700000000
1!
14
b111111 =
1?
#2720000000
0!
04
0?
#2740000000
1!
14
b1000000 =
1?
#2760000000
0!
04
0?
#2780000000
1!
14
b1000001 =
1?
#2800000000
0!
04
0?
#2820000000
1!
14
b1000010 =
1?
#2840000000
0!
04
0?
#2860000000
1!
14
b1000011 =
1?
#2880000000
0!
04
0?
#2900000000
1!
14
b1000100 =
1?
#2920000000
0!
04
0?
#2940000000
1!
14
b1000101 =
1?
#2960000000
0!
04
0?
#2980000000
1!
14
b1000110 =
1?
#3000000000
0!
04
0?
#3020000000
1!
14
b1000111 =
1?
#3040000000
0!
04
0?
#3060000000
1!
14
b1001000 =
1?
#3080000000
0!
04
0?
#3100000000
1!
14
b1001001 =
1?
#3120000000
0!
04
0?
#3140000000
1!
14
b1001010 =
1?
#3160000000
0!
04
0?
#3180000000
1!
14
b1001011 =
1?
#3200000000
0!
04
0?
#3220000000
1!
14
b1001100 =
1?
#3240000000
0!
04
0?
#3260000000
1!
14
b1001101 =
1?
#3280000000
0!
04
0?
#3300000000
1!
14
b1001110 =
1?
#3320000000
0!
04
0?
#3340000000
1!
14
b1001111 =
1?
#3360000000
0!
04
0?
#3380000000
1!
14
b1010000 =
1?
#3400000000
0!
04
0?
#3420000000
1!
14
b1010001 =
1?
#3440000000
0!
04
0?
#3460000000
1!
14
b1010010 =
1?
#3480000000
0!
04
0?
#3500000000
1!
14
b1010011 =
1?
#3520000000
0!
04
0?
#3540000000
1!
14
b1010100 =
1?
#3560000000
0!
04
0?
#3580000000
1!
14
b1010101 =
1?
#3600000000
0!
04
0?
#3620000000
1!
14
b1010110 =
1?
#3640000000
0!
04
0?
#3660000000
1!
14
b1010111 =
1?
#3680000000
0!
04
0?
#3700000000
1!
14
b1011000 =
1?
#3720000000
0!
04
0?
#3740000000
1!
14
b1011001 =
1?
#3760000000
0!
04
0?
#3780000000
1!
14
b1011010 =
1?
#3800000000
0!
04
0?
#3820000000
1!
14
b1011011 =
1?
#3840000000
0!
04
0?
#3860000000
1!
14
b1011100 =
1?
#3880000000
0!
04
0?
#3900000000
1!
14
b1011101 =
1?
#3920000000
0!
04
0?
#3940000000
1!
14
b1011110 =
1?
#3960000000
0!
04
0?
#3980000000
1!
14
b1011111 =
1?
#4000000000
0!
04
0?
#4020000000
1!
14
b1100000 =
1?
#4040000000
0!
04
0?
#4060000000
1!
14
b1100001 =
1?
#4080000000
0!
04
0?
#4100000000
1!
14
b1100010 =
1?
#4120000000
0!
04
0?
#4140000000
1!
14
b1100011 =
1?
#4160000000
0!
04
0?
#4180000000
1!
14
b1100100 =
1?
#4200000000
0!
04
0?
#4220000000
1!
14
b1100101 =
1?
#4240000000
0!
04
0?
#4260000000
1!
14
b1100110 =
1?
#4280000000
0!
04
0?
#4300000000
1!
14
b1100111 =
1?
#4320000000
0!
04
0?
#4340000000
1!
14
b1101000 =
1?
#4360000000
0!
04
0?
#4380000000
1!
14
b1101001 =
1?
#4400000000
0!
04
0?
#4420000000
1!
14
b1101010 =
1?
#4440000000
0!
04
0?
#4460000000
1!
14
b1101011 =
1?
#4480000000
0!
04
0?
#4500000000
1!
14
b1101100 =
1?
#4520000000
0!
04
0?
#4540000000
1!
14
b1101101 =
1?
#4560000000
0!
04
0?
#4580000000
1!
14
b1101110 =
1?
#4600000000
0!
04
0?
#4620000000
1!
14
b1101111 =
1?
#4640000000
0!
04
0?
#4660000000
1!
14
b1110000 =
1?
#4680000000
0!
04
0?
#4700000000
1!
14
b1110001 =
1?
#4720000000
0!
04
0?
#4740000000
1!
14
b1110010 =
1?
#4760000000
0!
04
0?
#4780000000
1!
14
b1110011 =
1?
#4800000000
0!
04
0?
#4820000000
1!
14
b1110100 =
1?
#4840000000
0!
04
0?
#4860000000
1!
14
b1110101 =
1?
#4880000000
0!
04
0?
#4900000000
1!
14
b1110110 =
1?
#4920000000
0!
04
0?
#4940000000
1!
14
b1110111 =
1?
#4960000000
0!
04
0?
#4980000000
1!
14
b1111000 =
1?
#5000000000
0!
04
0?
#5020000000
1!
14
b1111001 =
1?
#5040000000
0!
04
0?
#5060000000
1!
14
b1111010 =
1?
#5080000000
0!
04
0?
#5100000000
1!
14
b1111011 =
1?
#5120000000
0!
04
0?
#5140000000
1!
14
b1111100 =
1?
#5160000000
0!
04
0?
#5180000000
1!
14
b1111101 =
1?
#5200000000
0!
04
0?
#5220000000
1!
14
b1111110 =
1?
#5240000000
0!
04
0?
#5260000000
1!
1,
14
1<
b1111111 =
1?
#5280000000
0!
04
0?
#5300000000
1!
0+
0,
14
0;
0<
1?
#5320000000
0!
04
0?
#5340000000
1!
14
b0 =
1?
