modules/fibonacci/fib_seq_tb.vcd
$date
  Mon Apr 29 00:09:38 2019
$end
$version
  GHDL v0
$end
$timescale
  1 fs
$end
$var reg 1 ! rst $end
$var reg 1 " clk $end
$var reg 1 # seq_over $end
$var reg 16 $ fib_out[15:0] $end
$scope module inst_dut $end
$var reg 1 % rst $end
$var reg 1 & clk $end
$var reg 16 ' fib_out[15:0] $end
$var reg 1 ( seq_over $end
$var reg 16 ) r_fib_1[15:0] $end
$var reg 16 * r_fib_2[15:0] $end
$var reg 16 + r_fib_next[15:0] $end
$var integer 32 , r_cnt $end
$var reg 16 - r_local[15:0] $end
$upscope $end
$enddefinitions $end
#0
1!
1"
0#
b0000000000000000 $
1%
1&
b0000000000000000 '
0(
b0000000000000001 )
b0000000000000000 *
b0000000000000001 +
b0 ,
bUUUUUUUUUUUUUUUU -
#200000000
0!
0"
0%
0&
#400000000
1"
1&
b0000000000000001 *
b0000000000000010 +
b1 ,
#600000000
0"
0&
#800000000
1"
1&
b0000000000000010 )
b0000000000000011 +
b10 ,
#1000000000
0"
0&
#1200000000
1"
1&
b0000000000000011 )
b0000000000000010 *
b0000000000000101 +
b11 ,
#1400000000
0"
0&
#1600000000
1"
1&
b0000000000000101 )
b0000000000000011 *
b0000000000001000 +
b100 ,
#1800000000
0"
0&
#2000000000
1"
1&
b0000000000001000 )
b0000000000000101 *
b0000000000001101 +
b101 ,
#2200000000
0"
0&
#2400000000
1"
1&
b0000000000001101 )
b0000000000001000 *
b0000000000010101 +
b110 ,
#2600000000
0"
0&
#2800000000
1"
1&
b0000000000010101 )
b0000000000001101 *
b0000000000100010 +
b111 ,
#3000000000
0"
0&
#3200000000
1"
1&
b0000000000100010 )
b0000000000010101 *
b0000000000110111 +
b1000 ,
#3400000000
0"
0&
#3600000000
1"
1&
b0000000000110111 )
b0000000000100010 *
b0000000001011001 +
b1001 ,
#3800000000
0"
0&
#4000000000
1"
1#
b0000000001011001 $
1&
b0000000001011001 '
1(
b0 ,
#4200000000
0"
0&
#4400000000
1"
0#
1&
0(
b0000000001011001 )
b0000000000110111 *
b0000000010010000 +
b1 ,
#4600000000
0"
0&
#4800000000
1"
1&
b0000000010010000 )
b0000000001011001 *
b0000000011101001 +
b10 ,
#5000000000
0"
0&
#5200000000
1"
1&
b0000000011101001 )
b0000000010010000 *
b0000000101111001 +
b11 ,
#5400000000
0"
0&
#5600000000
1"
1&
b0000000101111001 )
b0000000011101001 *
b0000001001100010 +
b100 ,
#5800000000
0"
0&
#6000000000
1"
1&
b0000001001100010 )
b0000000101111001 *
b0000001111011011 +
b101 ,
#6200000000
0"
0&
#6400000000
1"
1&
b0000001111011011 )
b0000001001100010 *
b0000011000111101 +
b110 ,
#6600000000
0"
0&
#6800000000
1"
1&
b0000011000111101 )
b0000001111011011 *
b0000101000011000 +
b111 ,
#7000000000
0"
0&
#7200000000
1"
1&
b0000101000011000 )
b0000011000111101 *
b0001000001010101 +
b1000 ,
#7400000000
0"
0&
#7600000000
1"
1&
b0001000001010101 )
b0000101000011000 *
b0001101001101101 +
b1001 ,
#7800000000
0"
0&
#8000000000
1"
1#
b0001101001101101 $
1&
b0001101001101101 '
1(
b0 ,
#8200000000
0"
0&
#8400000000
1"
0#
1&
0(
b0001101001101101 )
b0001000001010101 *
b0010101011000010 +
b1 ,
#8600000000
0"
0&
#8800000000
1"
1&
b0010101011000010 )
b0001101001101101 *
b0100010100101111 +
b10 ,
#9000000000
0"
0&
#9200000000
1"
1&
b0100010100101111 )
b0010101011000010 *
b0110111111110001 +
b11 ,
#9400000000
0"
0&
#9600000000
1"
1&
b0110111111110001 )
b0100010100101111 *
b1011010100100000 +
b100 ,
#9800000000
0"
0&
#10000000000
1"
1&
b1011010100100000 )
b0110111111110001 *
b0010010100010001 +
b101 ,
#10200000000
0"
0&
#10400000000
1"
1&
b0010010100010001 )
b1011010100100000 *
b1101101000110001 +
b110 ,
#10600000000
0"
0&
#10800000000
1"
1&
b1101101000110001 )
b0010010100010001 *
b1111111101000010 +
b111 ,
#11000000000
0"
0&
#11200000000
1"
1&
b1111111101000010 )
b1101101000110001 *
b1101100101110011 +
b1000 ,
#11400000000
0"
0&
#11600000000
1"
1&
b1101100101110011 )
b1111111101000010 *
b1101100010110101 +
b1001 ,
#11800000000
0"
0&
#12000000000
1"
1#
b1101100010110101 $
1&
b1101100010110101 '
1(
b0 ,
#12200000000
0"
0&
#12400000000
1"
0#
1&
0(
b1101100010110101 )
b1101100101110011 *
b1011001000101000 +
b1 ,
#12600000000
0"
0&
#12800000000
1"
1&
b1011001000101000 )
b1101100010110101 *
b1000101011011101 +
b10 ,
#13000000000
0"
0&
#13200000000
1"
1&
b1000101011011101 )
b1011001000101000 *
b0011110100000101 +
b11 ,
#13400000000
0"
0&
#13600000000
1"
1&
b0011110100000101 )
b1000101011011101 *
b1100011111100010 +
b100 ,
#13800000000
0"
0&
#14000000000
1"
1&
b1100011111100010 )
b0011110100000101 *
b0000010011100111 +
b101 ,
#14200000000
0"
0&
#14400000000
1"
1&
b0000010011100111 )
b1100011111100010 *
b1100110011001001 +
b110 ,
#14600000000
0"
0&
#14800000000
1"
1&
b1100110011001001 )
b0000010011100111 *
b1101000110110000 +
b111 ,
#15000000000
0"
0&
#15200000000
1"
1&
b1101000110110000 )
b1100110011001001 *
b1001111001111001 +
b1000 ,
#15400000000
0"
0&
#15600000000
1"
1&
b1001111001111001 )
b1101000110110000 *
b0111000000101001 +
b1001 ,
#15800000000
0"
0&
#16000000000
1"
1#
b0111000000101001 $
1&
b0111000000101001 '
1(
b0 ,
#16200000000
0"
0&
#16400000000
1"
0#
1&
0(
b0111000000101001 )
b1001111001111001 *
b0000111010100010 +
b1 ,
#16600000000
0"
0&
#16800000000
1"
1&
b0000111010100010 )
b0111000000101001 *
b0111111011001011 +
b10 ,
#17000000000
0"
0&
#17200000000
1"
1&
b0111111011001011 )
b0000111010100010 *
b1000110101101101 +
b11 ,
#17400000000
0"
0&
#17600000000
1"
1&
b1000110101101101 )
b0111111011001011 *
b0000110000111000 +
b100 ,
#17800000000
0"
0&
#18000000000
1"
1&
b0000110000111000 )
b1000110101101101 *
b1001100110100101 +
b101 ,
#18200000000
0"
0&
#18400000000
1"
1&
b1001100110100101 )
b0000110000111000 *
b1010010111011101 +
b110 ,
#18600000000
0"
0&
#18800000000
1"
1&
b1010010111011101 )
b1001100110100101 *
b0011111110000010 +
b111 ,
#19000000000
0"
0&
#19200000000
1"
1&
b0011111110000010 )
b1010010111011101 *
b1110010101011111 +
b1000 ,
#19400000000
0"
0&
#19600000000
1"
1&
b1110010101011111 )
b0011111110000010 *
b0010010011100001 +
b1001 ,
#19800000000
0"
0&
#20000000000
1"
1#
b0010010011100001 $
1&
b0010010011100001 '
1(
b0 ,
#20200000000
0"
0&
#20400000000
1"
0#
1&
0(
b0010010011100001 )
b1110010101011111 *
b0000101001000000 +
b1 ,
#20600000000
0"
0&
#20800000000
1"
1&
b0000101001000000 )
b0010010011100001 *
b0010111100100001 +
b10 ,
#21000000000
0"
0&
#21200000000
1"
1&
b0010111100100001 )
b0000101001000000 *
b0011100101100001 +
b11 ,
#21400000000
0"
0&
#21600000000
1"
1&
b0011100101100001 )
b0010111100100001 *
b0110100010000010 +
b100 ,
#21800000000
0"
0&
#22000000000
1"
1&
b0110100010000010 )
b0011100101100001 *
b1010000111100011 +
b101 ,
#22200000000
0"
0&
#22400000000
1"
1&
b1010000111100011 )
b0110100010000010 *
b0000101001100101 +
b110 ,
#22600000000
0"
0&
#22800000000
1"
1&
b0000101001100101 )
b1010000111100011 *
b1010110001001000 +
b111 ,
#23000000000
0"
0&
#23200000000
1"
1&
b1010110001001000 )
b0000101001100101 *
b1011011010101101 +
b1000 ,
#23400000000
0"
0&
#23600000000
1"
1&
b1011011010101101 )
b1010110001001000 *
b0110001011110101 +
b1001 ,
#23800000000
0"
0&
#24000000000
1"
1#
b0110001011110101 $
1&
b0110001011110101 '
1(
b0 ,
#24200000000
0"
0&
#24400000000
1"
0#
1&
0(
b0110001011110101 )
b1011011010101101 *
b0001100110100010 +
b1 ,
#24600000000
0"
0&
#24800000000
1"
1&
b0001100110100010 )
b0110001011110101 *
b0111110010010111 +
b10 ,
#25000000000
0"
0&
#25200000000
1"
1&
b0111110010010111 )
b0001100110100010 *
b1001011000111001 +
b11 ,
#25400000000
0"
0&
#25600000000
1"
1&
b1001011000111001 )
b0111110010010111 *
b0001001011010000 +
b100 ,
#25800000000
0"
0&
#26000000000
1"
1&
b0001001011010000 )
b1001011000111001 *
b1010100100001001 +
b101 ,
#26200000000
0"
0&
#26400000000
1"
1&
b1010100100001001 )
b0001001011010000 *
b1011101111011001 +
b110 ,
#26600000000
0"
0&
#26800000000
1"
1&
b1011101111011001 )
b1010100100001001 *
b0110010011100010 +
b111 ,
#27000000000
0"
0&
#27200000000
1"
1&
b0110010011100010 )
b1011101111011001 *
b0010000010111011 +
b1000 ,
#27400000000
0"
0&
#27600000000
1"
1&
b0010000010111011 )
b0110010011100010 *
b1000010110011101 +
b1001 ,
#27800000000
0"
0&
#28000000000
1"
1#
b1000010110011101 $
1&
b1000010110011101 '
1(
b0 ,
#28200000000
0"
0&
#28400000000
1"
0#
1&
0(
b1000010110011101 )
b0010000010111011 *
b1010011001011000 +
b1 ,
#28600000000
0"
0&
#28800000000
1"
1&
b1010011001011000 )
b1000010110011101 *
b0010101111110101 +
b10 ,
#29000000000
0"
0&
#29200000000
1"
1&
b0010101111110101 )
b1010011001011000 *
b1101001001001101 +
b11 ,
#29400000000
0"
0&
#29600000000
1"
1&
b1101001001001101 )
b0010101111110101 *
b1111111001000010 +
b100 ,
#29800000000
0"
0&
#30000000000
1"
1&
b1111111001000010 )
b1101001001001101 *
b1101000010001111 +
b101 ,
#30200000000
0"
0&
#30400000000
1"
1&
b1101000010001111 )
b1111111001000010 *
b1100111011010001 +
b110 ,
#30600000000
0"
0&
#30800000000
1"
1&
b1100111011010001 )
b1101000010001111 *
b1001111101100000 +
b111 ,
#31000000000
0"
0&
#31200000000
1"
1&
b1001111101100000 )
b1100111011010001 *
b0110111000110001 +
b1000 ,
#31400000000
0"
0&
#31600000000
1"
1&
b0110111000110001 )
b1001111101100000 *
b0000110110010001 +
b1001 ,
#31800000000
0"
0&
#32000000000
1"
1#
b0000110110010001 $
1&
b0000110110010001 '
1(
b0 ,
#32200000000
0"
0&
#32400000000
1"
0#
1&
0(
b0000110110010001 )
b0110111000110001 *
b0111101111000010 +
b1 ,
#32600000000
0"
0&
#32800000000
1"
1&
b0111101111000010 )
b0000110110010001 *
b1000100101010011 +
b10 ,
#33000000000
0"
0&
#33200000000
1"
1&
b1000100101010011 )
b0111101111000010 *
b0000010100010101 +
b11 ,
#33400000000
0"
0&
#33600000000
1"
1&
b0000010100010101 )
b1000100101010011 *
b1000111001101000 +
b100 ,
#33800000000
0"
0&
#34000000000
1"
1&
b1000111001101000 )
b0000010100010101 *
b1001001101111101 +
b101 ,
#34200000000
0"
0&
#34400000000
1"
1&
b1001001101111101 )
b1000111001101000 *
b0010000111100101 +
b110 ,
#34600000000
0"
0&
#34800000000
1"
1&
b0010000111100101 )
b1001001101111101 *
b1011010101100010 +
b111 ,
#35000000000
0"
0&
#35200000000
1"
1&
b1011010101100010 )
b0010000111100101 *
b1101011101000111 +
b1000 ,
#35400000000
0"
0&
#35600000000
1"
1&
b1101011101000111 )
b1011010101100010 *
b1000110010101001 +
b1001 ,
#35800000000
0"
0&
#36000000000
1"
1#
b1000110010101001 $
1&
b1000110010101001 '
1(
b0 ,
#36200000000
0"
0&
#36400000000
1"
0#
1&
0(
b1000110010101001 )
b1101011101000111 *
b0110001111110000 +
b1 ,
#36600000000
0"
0&
#36800000000
1"
1&
b0110001111110000 )
b1000110010101001 *
b1111000010011001 +
b10 ,
#37000000000
0"
0&
#37200000000
1"
1&
b1111000010011001 )
b0110001111110000 *
b0101010010001001 +
b11 ,
#37400000000
0"
0&
#37600000000
1"
1&
b0101010010001001 )
b1111000010011001 *
b0100010100100010 +
b100 ,
#37800000000
0"
0&
#38000000000
1"
1&
b0100010100100010 )
b0101010010001001 *
b1001100110101011 +
b101 ,
#38200000000
0"
0&
#38400000000
1"
1&
b1001100110101011 )
b0100010100100010 *
b1101111011001101 +
b110 ,
#38600000000
0"
0&
#38800000000
1"
1&
b1101111011001101 )
b1001100110101011 *
b0111100001111000 +
b111 ,
#39000000000
0"
0&
#39200000000
1"
1&
b0111100001111000 )
b1101111011001101 *
b0101011101000101 +
b1000 ,
#39400000000
0"
0&
#39600000000
1"
1&
b0101011101000101 )
b0111100001111000 *
b1100111110111101 +
b1001 ,
#39800000000
0"
0&
#40000000000
1"
1#
b1100111110111101 $
1&
b1100111110111101 '
1(
b0 ,
#40200000000
0"
0&
#40400000000
1"
0#
1&
0(
b1100111110111101 )
b0101011101000101 *
b0010011100000010 +
b1 ,
#40600000000
0"
0&
#40800000000
1"
1&
b0010011100000010 )
b1100111110111101 *
b1111011010111111 +
b10 ,
#41000000000
0"
0&
#41200000000
1"
1&
b1111011010111111 )
b0010011100000010 *
b0001110111000001 +
b11 ,
#41400000000
0"
0&
#41600000000
1"
1&
b0001110111000001 )
b1111011010111111 *
b0001010010000000 +
b100 ,
#41800000000
0"
0&
#42000000000
1"
1&
b0001010010000000 )
b0001110111000001 *
b0011001001000001 +
b101 ,
#42200000000
0"
0&
#42400000000
1"
1&
b0011001001000001 )
b0001010010000000 *
b0100011011000001 +
b110 ,
#42600000000
0"
0&
#42800000000
1"
1&
b0100011011000001 )
b0011001001000001 *
b0111100100000010 +
b111 ,
#43000000000
0"
0&
#43200000000
1"
1&
b0111100100000010 )
b0100011011000001 *
b1011111111000011 +
b1000 ,
#43400000000
0"
0&
#43600000000
1"
1&
b1011111111000011 )
b0111100100000010 *
b0011100011000101 +
b1001 ,
#43800000000
0"
0&
#44000000000
1"
1#
b0011100011000101 $
1&
b0011100011000101 '
1(
b0 ,
#44200000000
0"
0&
#44400000000
1"
0#
1&
0(
b0011100011000101 )
b1011111111000011 *
b1111100010001000 +
b1 ,
#44600000000
0"
0&
#44800000000
1"
1&
b1111100010001000 )
b0011100011000101 *
b0011000101001101 +
b10 ,
#45000000000
0"
0&
#45200000000
1"
1&
b0011000101001101 )
b1111100010001000 *
b0010100111010101 +
b11 ,
#45400000000
0"
0&
#45600000000
1"
1&
b0010100111010101 )
b0011000101001101 *
b0101101100100010 +
b100 ,
#45800000000
0"
0&
#46000000000
1"
1&
b0101101100100010 )
b0010100111010101 *
b1000010011110111 +
b101 ,
#46200000000
0"
0&
#46400000000
1"
1&
b1000010011110111 )
b0101101100100010 *
b1110000000011001 +
b110 ,
#46600000000
0"
0&
#46800000000
1"
1&
b1110000000011001 )
b1000010011110111 *
b0110010100010000 +
b111 ,
#47000000000
0"
0&
#47200000000
1"
1&
b0110010100010000 )
b1110000000011001 *
b0100010100101001 +
b1000 ,
#47400000000
0"
0&
#47600000000
1"
1&
b0100010100101001 )
b0110010100010000 *
b1010101000111001 +
b1001 ,
#47800000000
0"
0&
#48000000000
1"
1#
b1010101000111001 $
1&
b1010101000111001 '
1(
b0 ,
#48200000000
0"
0&
#48400000000
1"
0#
1&
0(
b1010101000111001 )
b0100010100101001 *
b1110111101100010 +
b1 ,
#48600000000
0"
0&
#48800000000
1"
1&
b1110111101100010 )
b1010101000111001 *
b1001100110011011 +
b10 ,
#49000000000
0"
0&
#49200000000
1"
1&
b1001100110011011 )
b1110111101100010 *
b1000100011111101 +
b11 ,
#49400000000
0"
0&
#49600000000
1"
1&
b1000100011111101 )
b1001100110011011 *
b0010001010011000 +
b100 ,
#49800000000
0"
0&
#50000000000
1"
1&
b0010001010011000 )
b1000100011111101 *
b1010101110010101 +
b101 ,
